{
  "kind": "collectionType",
  "collectionName": "artworks",
  "info": {
    "name": "artwork"
  },
  "options": {
    "increments": true,
    "timestamps": true
  },
  "attributes": {
    "name": {
      "type": "string"
    },
    "description": {
      "type": "richtext"
    },
    "certificat": {
      "type": "biginteger"
    },
    "image": {
      "model": "file",
      "via": "related",
      "allowedTypes": [
        "images",
        "files",
        "videos"
      ],
      "plugin": "upload",
      "required": false
    },
    "user": {
      "plugin": "users-permissions",
      "model": "user",
      "via": "artworks"
    }
  }
}
